<svg version="1.1" overflow="visible" preserveAspectRatio="none" viewBox="0 0 1442 542" width="1440" height="540" xmlns="http://www.w3.org/2000/svg" xmlns:xlink="http://www.w3.org/1999/xlink"><g transform="translate(1, 1)"><title>Rectangle 2D66A2F5C-EE23-4A31-83C7-6E4B14EA7C60</title><desc>Created with Sketch.</desc><defs>
        <linearGradient x1="39.345482%" y1="12.3007812%" x2="39.208442%" y2="94.8001302%" id="linearGradient-1-D66A2F5C-EE23-4A31-83C7-6E4B14EA7C60292" vector-effect="non-scaling-stroke">
            <stop stop-color="#950B42" offset="0%" vector-effect="non-scaling-stroke"/>
            <stop stop-color="#811141" offset="23.2318199%" vector-effect="non-scaling-stroke"/>
            <stop stop-color="#272A3F" offset="100%" vector-effect="non-scaling-stroke"/>
        </linearGradient>
    </defs><g id="Page-1" stroke="none" stroke-width="1" fill="none" fill-rule="evenodd">
        <g id="Home-Page" transform="translate(0.000000, -60.000000)" fill="url(#linearGradient-1-D66A2F5C-EE23-4A31-83C7-6E4B14EA7C60292)">
            <g id="Website-Header">
                <g id="Carousel-Slide-01" transform="translate(0.000000, 60.000000)">
                    <rect id="Rectangle-2" x="0" y="0" width="1440" height="540" vector-effect="non-scaling-stroke"/>
                </g>
            </g>
        </g>
    </g></g></svg>